<?xml version="1.0" encoding="UTF-8"?>
<svg width="22px" height="21px" viewBox="0 0 22 21" version="1.1" xmlns="http://www.w3.org/2000/svg" xmlns:xlink="http://www.w3.org/1999/xlink">
    <!-- Generator: Sketch 46.2 (44496) - http://www.bohemiancoding.com/sketch -->
    <title>Page 1</title>
    <desc>Created with Sketch.</desc>
    <defs></defs>
    <g id="Symbols" stroke="none" stroke-width="1" fill="none" fill-rule="evenodd">
        <g id="sticky-bottom-menu" transform="translate(-33.000000, -10.000000)" stroke="#C1E32E">
            <g id="Group-4">
                <g id="Page-1" transform="translate(34.000000, 10.130626)">
                    <path d="M12.3309265,16.5534037 C9.59174366,16.183158 9.6076243,15.1917526 9.6076243,14.6472736 L9.6076243,14.326031 C10.2591841,13.7447998 10.7587435,12.9090246 11.0291681,11.9312312 C11.0346129,11.9312312 11.037789,11.9330461 11.0432338,11.9330461 C11.8726567,11.9330461 12.0659467,10.2111314 12.0659467,9.95341139 C12.0659467,9.69523763 11.9924421,8.77552195 11.6253725,8.66526496 C12.9865699,3.89426821 8.9029778,1.86200056 5.36114227,4.30761848 C3.88015954,4.30761848 3.39648075,6.48644172 3.9395985,8.66526496 C3.57162148,8.66526496 3.49993175,9.69523763 3.49993175,9.95341139 C3.49993175,10.2111314 3.69231431,11.9330461 4.52173723,11.9330461 C4.52355216,11.9330461 4.52445963,11.9325924 4.52718202,11.9325924 C4.79488417,12.9058485 5.53401434,13.7379938 6.18058308,14.3192251 L6.18058308,14.6472736 C6.18058308,15.1917526 5.96188404,16.2031222 3.21634897,16.5534037 C0.0542875,16.9563181 0.0542875,19.5489453 0.0542875,19.5489453 L15.0274585,19.5489453 C15.0274585,19.5489453 15.0515063,16.9209269 12.3309265,16.5534037 Z" id="Stroke-1"></path>
                    <path d="M8.68514085,3.27533178 C8.98732666,2.16867832 9.76366289,0.744865884 11.7609931,0.744865884 C11.7609931,0.744865884 17.2057826,-0.982947297 17.2057826,4.55576476 C17.2057826,9.22920903 18.2720539,9.7224162 19.3832446,10.8345144 C17.5233953,11.3073037 15.5646323,11.3903367 15.0278668,11.3789934 L15.0278668,11.9239261 C15.0278668,12.468405 14.9266845,13.5573629 17.635921,14.1013881 C20.4726562,14.6708223 20.4726562,16.8237828 20.4726562,16.8237828 L13.3109432,16.8237828" id="Stroke-3"></path>
                </g>
            </g>
        </g>
    </g>
</svg>