<?xml version="1.0" encoding="UTF-8"?>
<svg width="43px" height="43px" viewBox="0 0 43 43" version="1.1" xmlns="http://www.w3.org/2000/svg" xmlns:xlink="http://www.w3.org/1999/xlink">
    <!-- Generator: Sketch 46.2 (44496) - http://www.bohemiancoding.com/sketch -->
    <title>instagram icon</title>
    <desc>Created with Sketch.</desc>
    <defs>
        <polygon id="path-1" points="1.6909171e-15 16.9526888 1.6909171e-15 0.00290981158 16.950032 0.00290981158 16.950032 16.9526888"></polygon>
    </defs>
    <g id="Symbols" stroke="none" stroke-width="1" fill="none" fill-rule="evenodd">
        <g id="Mobile-Menu-Open" transform="translate(-175.000000, -393.000000)">
            <g id="instagram-icon" transform="translate(176.000000, 394.000000)">
                <circle id="Oval-2-Copy-2" stroke="#C1E32E" cx="20.5" cy="20.7817168" r="20.5"></circle>
                <g id="Page-1" transform="translate(12.000000, 11.787109)">
                    <g id="Group-3" transform="translate(0.000000, 0.250193)">
                        <mask id="mask-2" fill="white">
                            <use xlink:href="#path-1"></use>
                        </mask>
                        <g id="Clip-2"></g>
                        <path d="M8.475016,0.00290981158 C6.17322853,0.00290981158 5.88477764,0.0125248412 4.98071183,0.0537682575 C4.07867024,0.0950116738 3.46254927,0.238225009 2.92360156,0.447731443 C2.36618287,0.664322635 1.89352826,0.954291685 1.42239181,1.42517511 C0.95125536,1.89631156 0.661539337,2.36921919 0.444948145,2.92638486 C0.235441711,3.46558559 0.0922283758,4.08145354 0.0509849594,4.98374816 C0.00974154312,5.88756094 -0.000126513547,6.17601182 -0.000126513547,8.4777993 C-0.000126513547,10.7795868 0.00974154312,11.0680377 0.0509849594,11.9721035 C0.0922283758,12.8741451 0.235441711,13.490266 0.444948145,14.0294668 C0.661539337,14.5866324 0.95125536,15.059287 1.42239181,15.5304235 C1.89352826,16.0015599 2.36618287,16.291276 2.92360156,16.5078672 C3.46254927,16.7173736 4.07867024,16.8605869 4.98071183,16.9018303 C5.88477764,16.9430738 6.17322853,16.9526888 8.475016,16.9526888 C10.7768035,16.9526888 11.0652544,16.9430738 11.9693202,16.9018303 C12.8713618,16.8605869 13.4874827,16.7173736 14.0264304,16.5078672 C14.5838491,16.291276 15.0565037,16.0015599 15.5276402,15.5304235 C15.9987766,15.059287 16.2884927,14.5866324 16.5050839,14.0294668 C16.7145903,13.490266 16.8578036,12.8741451 16.899047,11.9721035 C16.9402905,11.0680377 16.9501585,10.7795868 16.9501585,8.4777993 C16.9501585,6.17601182 16.9402905,5.88756094 16.899047,4.98374816 C16.8578036,4.08145354 16.7145903,3.46558559 16.5050839,2.92638486 C16.2884927,2.36921919 15.9987766,1.89631156 15.5276402,1.42517511 C15.0565037,0.954291685 14.5838491,0.664322635 14.0264304,0.447731443 C13.4874827,0.238225009 12.8713618,0.0950116738 11.9693202,0.0537682575 C11.0652544,0.0125248412 10.7768035,0.00290981158 8.475016,0.00290981158 M8.475016,1.52992832 C10.7378373,1.52992832 11.006046,1.53827822 11.8997377,1.57901558 C12.7258712,1.61696964 13.1747412,1.75512244 13.4733132,1.87100885 C13.8687946,2.02484932 14.1511728,2.20854699 14.4477206,2.50509474 C14.7442683,2.8016425 14.927966,3.08402074 15.0818065,3.47950208 C15.1976929,3.77807405 15.3358457,4.22669109 15.3735467,5.05307758 C15.4142841,5.94676928 15.422887,6.214978 15.422887,8.4777993 C15.422887,10.7408736 15.4142841,11.0088293 15.3735467,11.902268 C15.3358457,12.7286545 15.1976929,13.1772715 15.0818065,13.4760965 C14.927966,13.8718309 14.7442683,14.1542091 14.4477206,14.4507569 C14.1511728,14.7470516 13.8687946,14.9307493 13.4733132,15.0843367 C13.1747412,15.2004762 12.7258712,15.338629 11.8997377,15.37633 C11.006046,15.4170674 10.7380903,15.4256703 8.475016,15.4256703 C6.21194167,15.4256703 5.94398598,15.4170674 5.05029428,15.37633 C4.22416082,15.338629 3.77529076,15.2004762 3.47671878,15.0843367 C3.08123744,14.9307493 2.7988592,14.7470516 2.50231145,14.4507569 C2.20576369,14.1542091 2.02206602,13.8718309 1.86822555,13.4760965 C1.75233914,13.1772715 1.61418635,12.7286545 1.57648531,11.902268 C1.53574795,11.0088293 1.52714503,10.7408736 1.52714503,8.4777993 C1.52714503,6.214978 1.53574795,5.94676928 1.57648531,5.05333061 C1.61418635,4.22669109 1.75233914,3.77807405 1.86822555,3.47950208 C2.02206602,3.08402074 2.20576369,2.8016425 2.50231145,2.50509474 C2.7988592,2.20854699 3.08123744,2.02484932 3.47671878,1.87100885 C3.77529076,1.75512244 4.22416082,1.61696964 5.05029428,1.57901558 C5.94398598,1.53827822 6.2121947,1.52992832 8.475016,1.52992832" id="Fill-1" fill="#C1E32E" mask="url(#mask-2)"></path>
                    </g>
                    <path d="M8.475016,11.5530906 C6.91485094,11.5530906 5.6499685,10.2882082 5.6499685,8.72804309 C5.6499685,7.16787803 6.91485094,5.90299559 8.475016,5.90299559 C10.0351811,5.90299559 11.3000635,7.16787803 11.3000635,8.72804309 C11.3000635,10.2882082 10.0351811,11.5530906 8.475016,11.5530906 M8.475016,4.37597708 C6.07151163,4.37597708 4.12294998,6.32453873 4.12294998,8.72804309 C4.12294998,11.1315475 6.07151163,13.0801091 8.475016,13.0801091 C10.8785204,13.0801091 12.827082,11.1315475 12.827082,8.72804309 C12.827082,6.32453873 10.8785204,4.37597708 8.475016,4.37597708" id="Fill-4" fill="#C1E32E"></path>
                    <path d="M14.016031,4.20394396 C14.016031,4.76591713 13.5605823,5.22111287 12.9988621,5.22111287 C12.437395,5.22111287 11.9819462,4.76591713 11.9819462,4.20394396 C11.9819462,3.64222381 12.437395,3.18702807 12.9988621,3.18702807 C13.5605823,3.18702807 14.016031,3.64222381 14.016031,4.20394396" id="Fill-6" fill="#C1E32E"></path>
                </g>
            </g>
        </g>
    </g>
</svg>