<?xml version="1.0" encoding="UTF-8"?>
<svg width="24px" height="25px" viewBox="0 0 24 25" version="1.1" xmlns="http://www.w3.org/2000/svg" xmlns:xlink="http://www.w3.org/1999/xlink">
    <!-- Generator: Sketch 46.2 (44496) - http://www.bohemiancoding.com/sketch -->
    <title>Group Copy</title>
    <desc>Created with Sketch.</desc>
    <defs></defs>
    <g id="Page-1" stroke="none" stroke-width="1" fill="none" fill-rule="evenodd">
        <g id="Homepage" transform="translate(-13.000000, -415.000000)" stroke="#C1E32E">
            <g id="Group-2" transform="translate(0.000000, 403.766952)">
                <g id="Group-Copy" transform="translate(24.390327, 24.007566) scale(-1, 1) translate(-24.390327, -24.007566) translate(12.890327, 12.507566)">
                    <ellipse id="Oval" cx="11.1880543" cy="11.3591482" rx="11.1880543" ry="11.3591482"></ellipse>
                    <path d="M12.4090041,8.8355384 L6.72847399,14.6029383 L12.4090041,14.6029383 L12.4090041,8.8355384 Z" id="Rectangle-3" transform="translate(9.221604, 11.359148) rotate(-45.000000) translate(-9.221604, -11.359148) "></path>
                </g>
            </g>
        </g>
    </g>
</svg>