<?xml version="1.0" encoding="UTF-8"?>
<svg width="52px" height="52px" viewBox="0 0 52 52" version="1.1" xmlns="http://www.w3.org/2000/svg" xmlns:xlink="http://www.w3.org/1999/xlink">
    <!-- Generator: Sketch 46.2 (44496) - http://www.bohemiancoding.com/sketch -->
    <title>Group</title>
    <desc>Created with Sketch.</desc>
    <defs></defs>
    <g id="Page-1" stroke="none" stroke-width="1" fill="none" fill-rule="evenodd">
        <g id="Careers" transform="translate(-63.000000, -1489.000000)" stroke="#C1E32E">
            <g id="Group" transform="translate(64.000000, 1489.000000)">
                <circle id="Oval-4-Copy-4" cx="25" cy="25.5410938" r="25"></circle>
                <path d="M31.2871332,17.9889799 C28.7611165,20.2126512 29.1032571,23.8126497 29.1032571,23.8126497 C29.1032571,23.8126497 25.3979471,18.1680578 26.9193809,13.6217129 C25.4338598,16.6883603 18.9118349,17.4760117 21.8236698,25.9965259 C18.1382574,24.6046688 18.1838762,20.1723708 18.1838762,20.1723708 C18.1838762,20.1723708 16,22.3567323 16,26.7244846 C16,31.5489097 19.9120502,35.4604746 24.7355047,35.4604746 C29.5599298,35.4604746 33.4710094,31.5489097 33.4710094,26.7244846 C33.4710094,22.2984956 30.3077861,22.3057752 31.2871332,17.9889799 Z" id="Page-1" stroke-linecap="round" stroke-linejoin="round"></path>
            </g>
        </g>
    </g>
</svg>